{
  "project_info": {
    "project_number": "766246776478",
    "firebase_url": "https://supermarketbrasil-b07ba.firebaseio.com",
    "project_id": "supermarketbrasil-b07ba",
    "storage_bucket": "supermarketbrasil-b07ba.appspot.com"
  },
  "client": [
    {
      "client_info": {
        "mobilesdk_app_id": "1:766246776478:android:aff88b0cb087a5fb",
        "android_client_info": {
          "package_name": "com.supermarket.projeto"
        }
      },
      "oauth_client": [
        {
          "client_id": "766246776478-7t6ertv0slvs67nfnj5qru8i10hl9tcu.apps.googleusercontent.com",
          "client_type": 1,
          "android_info": {
            "package_name": "com.supermarket.projeto",
            "certificate_hash": "59cae45b00ad5be116bd286e059157538911a29c"
          }
        },
        {
          "client_id": "766246776478-erdecve82i4qfbjdlg267l6mp9vqbp8b.apps.googleusercontent.com",
          "client_type": 3
        }
      ],
      "api_key": [
        {
          "current_key": "AIzaSyAQheNVLhJI1tXNDhH58AfyIGXJiQuU5V0"
        }
      ],
      "services": {
        "analytics_service": {
          "status": 1
        },
        "appinvite_service": {
          "status": 2,
          "other_platform_oauth_client": [
            {
              "client_id": "766246776478-erdecve82i4qfbjdlg267l6mp9vqbp8b.apps.googleusercontent.com",
              "client_type": 3
            }
          ]
        },
        "ads_service": {
          "status": 2
        }
      }
    }
  ],
  "configuration_version": "1"
}